post_title,post_excerpt,post_content,post_status,menu_order,post_parent,sku,downloadable,virtual,visibility,stock,stock_status,backorders,manage_stock,regular_price,sale_price,weight,length,width,height,tax_status,tax_class,upsell_ids,crosssell_ids,featured,file_path,download_limit,download_expiry,product_url,button_text,images,tax:product_type,tax:product_cat,tax:product_tag,tax:product_shipping_class,meta:woocommerce_sale_flash_type,,attribute:Release Date,attribute:Version,attribute:Software Application Type,attribute:File Type,attribute:File Size,attribute:Requirements
Arrow Banner Series 001,,"<ul>
         <li>EPS file, fully layered, editable with almost all versions of vector programs like Illustrator or Inkscape</li>
         <li>JPG file, approx. 3900 × 39000 p - 300 Dpi, color space RGB</li>
</ul>
All files are editable by the CS Adobe version or higher.

All vector files are composed with a shapes, no paths.

Do you want any customization ? Please Mail me!

Happy designing !",,0,0,,yes,yes,visible,0,instock,no,no,0,,,,,,taxable,reduced-rate,,,no,https://s3.amazonaws.com/mehibimember/ASIF2016_23JUNI_ARROWBANNER/arrowbanner_1.eps,,,,,https://maulanaicl.files.wordpress.com/2017/10/arrowbanner_1.jpg,simple,Logo,decorative|simple|background|vector|modern|color|object|abstract|illustration|creative|wallpaper|art|logo|company|corporate|arrow|banner,,amount,,"23 Jun, 2016",1.0,"Adobe Illustrator, Corel Draw",".EPS, .JPG",650 KB,Adobe Illustrator and Corel Draw
Arrow Banner Series 002,,"<ul>
         <li>EPS file, fully layered, editable with almost all versions of vector programs like Illustrator or Inkscape</li>
         <li>JPG file, approx. 3900 × 39000 p - 300 Dpi, color space RGB</li>
</ul>
All files are editable by the CS Adobe version or higher.

All vector files are composed with a shapes, no paths.

Do you want any customization ? Please Mail me!

Happy designing !",,0,0,,yes,yes,visible,0,instock,no,no,0,,,,,,taxable,reduced-rate,,,no,https://s3.amazonaws.com/mehibimember/ASIF2016_23JUNI_ARROWBANNER/arrowbanner_2.eps,,,,,https://maulanaicl.files.wordpress.com/2017/10/arrowbanner_2.jpg,simple,Logo,decorative|simple|background|vector|modern|color|object|abstract|illustration|creative|wallpaper|art|logo|company|corporate|arrow|banner,,amount,,"23 Jun, 2016",1.0,"Adobe Illustrator, Corel Draw",".EPS, .JPG",650 KB,Adobe Illustrator and Corel Draw
Arrow Banner Series 003,,"<ul>
         <li>EPS file, fully layered, editable with almost all versions of vector programs like Illustrator or Inkscape</li>
         <li>JPG file, approx. 3900 × 39000 p - 300 Dpi, color space RGB</li>
</ul>
All files are editable by the CS Adobe version or higher.

All vector files are composed with a shapes, no paths.

Do you want any customization ? Please Mail me!

Happy designing !",,0,0,,yes,yes,visible,0,instock,no,no,0,,,,,,taxable,reduced-rate,,,no,https://s3.amazonaws.com/mehibimember/ASIF2016_23JUNI_ARROWBANNER/arrowbanner_3.eps,,,,,https://maulanaicl.files.wordpress.com/2017/10/arrowbanner_3.jpg,simple,Logo,decorative|simple|background|vector|modern|color|object|abstract|illustration|creative|wallpaper|art|logo|company|corporate|arrow|banner,,amount,,"23 Jun, 2016",1.0,"Adobe Illustrator, Corel Draw",".EPS, .JPG",650 KB,Adobe Illustrator and Corel Draw
Arrow Banner Series 004,,"<ul>
         <li>EPS file, fully layered, editable with almost all versions of vector programs like Illustrator or Inkscape</li>
         <li>JPG file, approx. 3900 × 39000 p - 300 Dpi, color space RGB</li>
</ul>
All files are editable by the CS Adobe version or higher.

All vector files are composed with a shapes, no paths.

Do you want any customization ? Please Mail me!

Happy designing !",,0,0,,yes,yes,visible,0,instock,no,no,0,,,,,,taxable,reduced-rate,,,no,https://s3.amazonaws.com/mehibimember/ASIF2016_23JUNI_ARROWBANNER/arrowbanner_4.eps,,,,,https://maulanaicl.files.wordpress.com/2017/10/arrowbanner_4.jpg,simple,Logo,decorative|simple|background|vector|modern|color|object|abstract|illustration|creative|wallpaper|art|logo|company|corporate|arrow|banner,,amount,,"23 Jun, 2016",1.0,"Adobe Illustrator, Corel Draw",".EPS, .JPG",650 KB,Adobe Illustrator and Corel Draw
Arrow Banner Series 005,,"<ul>
         <li>EPS file, fully layered, editable with almost all versions of vector programs like Illustrator or Inkscape</li>
         <li>JPG file, approx. 3900 × 39000 p - 300 Dpi, color space RGB</li>
</ul>
All files are editable by the CS Adobe version or higher.

All vector files are composed with a shapes, no paths.

Do you want any customization ? Please Mail me!

Happy designing !",,0,0,,yes,yes,visible,0,instock,no,no,0,,,,,,taxable,reduced-rate,,,no,https://s3.amazonaws.com/mehibimember/ASIF2016_23JUNI_ARROWBANNER/arrowbanner_5.eps,,,,,https://maulanaicl.files.wordpress.com/2017/10/arrowbanner_5.jpg,simple,Logo,decorative|simple|background|vector|modern|color|object|abstract|illustration|creative|wallpaper|art|logo|company|corporate|arrow|banner,,amount,,"23 Jun, 2016",1.0,"Adobe Illustrator, Corel Draw",".EPS, .JPG",650 KB,Adobe Illustrator and Corel Draw
Arrow Banner Series 006,,"<ul>
         <li>EPS file, fully layered, editable with almost all versions of vector programs like Illustrator or Inkscape</li>
         <li>JPG file, approx. 3900 × 39000 p - 300 Dpi, color space RGB</li>
</ul>
All files are editable by the CS Adobe version or higher.

All vector files are composed with a shapes, no paths.

Do you want any customization ? Please Mail me!

Happy designing !",,0,0,,yes,yes,visible,0,instock,no,no,0,,,,,,taxable,reduced-rate,,,no,https://s3.amazonaws.com/mehibimember/ASIF2016_23JUNI_ARROWBANNER/arrowbanner_6.eps,,,,,https://maulanaicl.files.wordpress.com/2017/10/arrowbanner_6.jpg,simple,Logo,decorative|simple|background|vector|modern|color|object|abstract|illustration|creative|wallpaper|art|logo|company|corporate|arrow|banner,,amount,,"23 Jun, 2016",1.0,"Adobe Illustrator, Corel Draw",".EPS, .JPG",650 KB,Adobe Illustrator and Corel Draw
Arrow Banner Series 007,,"<ul>
         <li>EPS file, fully layered, editable with almost all versions of vector programs like Illustrator or Inkscape</li>
         <li>JPG file, approx. 3900 × 39000 p - 300 Dpi, color space RGB</li>
</ul>
All files are editable by the CS Adobe version or higher.

All vector files are composed with a shapes, no paths.

Do you want any customization ? Please Mail me!

Happy designing !",,0,0,,yes,yes,visible,0,instock,no,no,0,,,,,,taxable,reduced-rate,,,no,https://s3.amazonaws.com/mehibimember/ASIF2016_23JUNI_ARROWBANNER/arrowbanner_7.eps,,,,,https://maulanaicl.files.wordpress.com/2017/10/arrowbanner_7.jpg,simple,Logo,decorative|simple|background|vector|modern|color|object|abstract|illustration|creative|wallpaper|art|logo|company|corporate|arrow|banner,,amount,,"23 Jun, 2016",1.0,"Adobe Illustrator, Corel Draw",".EPS, .JPG",650 KB,Adobe Illustrator and Corel Draw
Arrow Banner Series 008,,"<ul>
         <li>EPS file, fully layered, editable with almost all versions of vector programs like Illustrator or Inkscape</li>
         <li>JPG file, approx. 3900 × 39000 p - 300 Dpi, color space RGB</li>
</ul>
All files are editable by the CS Adobe version or higher.

All vector files are composed with a shapes, no paths.

Do you want any customization ? Please Mail me!

Happy designing !",,0,0,,yes,yes,visible,0,instock,no,no,0,,,,,,taxable,reduced-rate,,,no,https://s3.amazonaws.com/mehibimember/ASIF2016_23JUNI_ARROWBANNER/arrowbanner_8.eps,,,,,https://maulanaicl.files.wordpress.com/2017/10/arrowbanner_8.jpg,simple,Logo,decorative|simple|background|vector|modern|color|object|abstract|illustration|creative|wallpaper|art|logo|company|corporate|arrow|banner,,amount,,"23 Jun, 2016",1.0,"Adobe Illustrator, Corel Draw",".EPS, .JPG",650 KB,Adobe Illustrator and Corel Draw
Arrow Banner Series 009,,"<ul>
         <li>EPS file, fully layered, editable with almost all versions of vector programs like Illustrator or Inkscape</li>
         <li>JPG file, approx. 3900 × 39000 p - 300 Dpi, color space RGB</li>
</ul>
All files are editable by the CS Adobe version or higher.

All vector files are composed with a shapes, no paths.

Do you want any customization ? Please Mail me!

Happy designing !",,0,0,,yes,yes,visible,0,instock,no,no,0,,,,,,taxable,reduced-rate,,,no,https://s3.amazonaws.com/mehibimember/ASIF2016_23JUNI_ARROWBANNER/arrowbanner_9.eps,,,,,https://maulanaicl.files.wordpress.com/2017/10/arrowbanner_9.jpg,simple,Logo,decorative|simple|background|vector|modern|color|object|abstract|illustration|creative|wallpaper|art|logo|company|corporate|arrow|banner,,amount,,"23 Jun, 2016",1.0,"Adobe Illustrator, Corel Draw",".EPS, .JPG",650 KB,Adobe Illustrator and Corel Draw
Arrow Banner Series 010,,"<ul>
         <li>EPS file, fully layered, editable with almost all versions of vector programs like Illustrator or Inkscape</li>
         <li>JPG file, approx. 3900 × 39000 p - 300 Dpi, color space RGB</li>
</ul>
All files are editable by the CS Adobe version or higher.

All vector files are composed with a shapes, no paths.

Do you want any customization ? Please Mail me!

Happy designing !",,0,0,,yes,yes,visible,0,instock,no,no,0,,,,,,taxable,reduced-rate,,,no,https://s3.amazonaws.com/mehibimember/ASIF2016_23JUNI_ARROWBANNER/arrowbanner_10.eps,,,,,https://maulanaicl.files.wordpress.com/2017/10/arrowbanner_10.jpg,simple,Logo,decorative|simple|background|vector|modern|color|object|abstract|illustration|creative|wallpaper|art|logo|company|corporate|arrow|banner,,amount,,"23 Jun, 2016",1.0,"Adobe Illustrator, Corel Draw",".EPS, .JPG",650 KB,Adobe Illustrator and Corel Draw
Arrow Banner Series 011,,"<ul>
         <li>EPS file, fully layered, editable with almost all versions of vector programs like Illustrator or Inkscape</li>
         <li>JPG file, approx. 3900 × 39000 p - 300 Dpi, color space RGB</li>
</ul>
All files are editable by the CS Adobe version or higher.

All vector files are composed with a shapes, no paths.

Do you want any customization ? Please Mail me!

Happy designing !",,0,0,,yes,yes,visible,0,instock,no,no,0,,,,,,taxable,reduced-rate,,,no,https://s3.amazonaws.com/mehibimember/ASIF2016_23JUNI_ARROWBANNER/arrowbanner_11.eps,,,,,https://maulanaicl.files.wordpress.com/2017/10/arrowbanner_11.jpg,simple,Logo,decorative|simple|background|vector|modern|color|object|abstract|illustration|creative|wallpaper|art|logo|company|corporate|arrow|banner,,amount,,"23 Jun, 2016",1.0,"Adobe Illustrator, Corel Draw",".EPS, .JPG",650 KB,Adobe Illustrator and Corel Draw
Arrow Banner Series 012,,"<ul>
         <li>EPS file, fully layered, editable with almost all versions of vector programs like Illustrator or Inkscape</li>
         <li>JPG file, approx. 3900 × 39000 p - 300 Dpi, color space RGB</li>
</ul>
All files are editable by the CS Adobe version or higher.

All vector files are composed with a shapes, no paths.

Do you want any customization ? Please Mail me!

Happy designing !",,0,0,,yes,yes,visible,0,instock,no,no,0,,,,,,taxable,reduced-rate,,,no,https://s3.amazonaws.com/mehibimember/ASIF2016_23JUNI_ARROWBANNER/arrowbanner_12.eps,,,,,https://maulanaicl.files.wordpress.com/2017/10/arrowbanner_12.jpg,simple,Logo,decorative|simple|background|vector|modern|color|object|abstract|illustration|creative|wallpaper|art|logo|company|corporate|arrow|banner,,amount,,"23 Jun, 2016",1.0,"Adobe Illustrator, Corel Draw",".EPS, .JPG",650 KB,Adobe Illustrator and Corel Draw
Arrow Banner Series 013,,"<ul>
         <li>EPS file, fully layered, editable with almost all versions of vector programs like Illustrator or Inkscape</li>
         <li>JPG file, approx. 3900 × 39000 p - 300 Dpi, color space RGB</li>
</ul>
All files are editable by the CS Adobe version or higher.

All vector files are composed with a shapes, no paths.

Do you want any customization ? Please Mail me!

Happy designing !",,0,0,,yes,yes,visible,0,instock,no,no,0,,,,,,taxable,reduced-rate,,,no,https://s3.amazonaws.com/mehibimember/ASIF2016_23JUNI_ARROWBANNER/arrowbanner_13.eps,,,,,https://maulanaicl.files.wordpress.com/2017/10/arrowbanner_13.jpg,simple,Logo,decorative|simple|background|vector|modern|color|object|abstract|illustration|creative|wallpaper|art|logo|company|corporate|arrow|banner,,amount,,"23 Jun, 2016",1.0,"Adobe Illustrator, Corel Draw",".EPS, .JPG",650 KB,Adobe Illustrator and Corel Draw
Arrow Banner Series 014,,"<ul>
         <li>EPS file, fully layered, editable with almost all versions of vector programs like Illustrator or Inkscape</li>
         <li>JPG file, approx. 3900 × 39000 p - 300 Dpi, color space RGB</li>
</ul>
All files are editable by the CS Adobe version or higher.

All vector files are composed with a shapes, no paths.

Do you want any customization ? Please Mail me!

Happy designing !",,0,0,,yes,yes,visible,0,instock,no,no,0,,,,,,taxable,reduced-rate,,,no,https://s3.amazonaws.com/mehibimember/ASIF2016_23JUNI_ARROWBANNER/arrowbanner_14.eps,,,,,https://maulanaicl.files.wordpress.com/2017/10/arrowbanner_14.jpg,simple,Logo,decorative|simple|background|vector|modern|color|object|abstract|illustration|creative|wallpaper|art|logo|company|corporate|arrow|banner,,amount,,"23 Jun, 2016",1.0,"Adobe Illustrator, Corel Draw",".EPS, .JPG",650 KB,Adobe Illustrator and Corel Draw
Arrow Banner Series 015,,"<ul>
         <li>EPS file, fully layered, editable with almost all versions of vector programs like Illustrator or Inkscape</li>
         <li>JPG file, approx. 3900 × 39000 p - 300 Dpi, color space RGB</li>
</ul>
All files are editable by the CS Adobe version or higher.

All vector files are composed with a shapes, no paths.

Do you want any customization ? Please Mail me!

Happy designing !",,0,0,,yes,yes,visible,0,instock,no,no,0,,,,,,taxable,reduced-rate,,,no,https://s3.amazonaws.com/mehibimember/ASIF2016_23JUNI_ARROWBANNER/arrowbanner_15.eps,,,,,https://maulanaicl.files.wordpress.com/2017/10/arrowbanner_15.jpg,simple,Logo,decorative|simple|background|vector|modern|color|object|abstract|illustration|creative|wallpaper|art|logo|company|corporate|arrow|banner,,amount,,"23 Jun, 2016",1.0,"Adobe Illustrator, Corel Draw",".EPS, .JPG",650 KB,Adobe Illustrator and Corel Draw
Arrow Banner Series 016,,"<ul>
         <li>EPS file, fully layered, editable with almost all versions of vector programs like Illustrator or Inkscape</li>
         <li>JPG file, approx. 3900 × 39000 p - 300 Dpi, color space RGB</li>
</ul>
All files are editable by the CS Adobe version or higher.

All vector files are composed with a shapes, no paths.

Do you want any customization ? Please Mail me!

Happy designing !",,0,0,,yes,yes,visible,0,instock,no,no,0,,,,,,taxable,reduced-rate,,,no,https://s3.amazonaws.com/mehibimember/ASIF2016_23JUNI_ARROWBANNER/arrowbanner_16.eps,,,,,https://maulanaicl.files.wordpress.com/2017/10/arrowbanner_16.jpg,simple,Logo,decorative|simple|background|vector|modern|color|object|abstract|illustration|creative|wallpaper|art|logo|company|corporate|arrow|banner,,amount,,"23 Jun, 2016",1.0,"Adobe Illustrator, Corel Draw",".EPS, .JPG",650 KB,Adobe Illustrator and Corel Draw
Arrow Banner Series 017,,"<ul>
         <li>EPS file, fully layered, editable with almost all versions of vector programs like Illustrator or Inkscape</li>
         <li>JPG file, approx. 3900 × 39000 p - 300 Dpi, color space RGB</li>
</ul>
All files are editable by the CS Adobe version or higher.

All vector files are composed with a shapes, no paths.

Do you want any customization ? Please Mail me!

Happy designing !",,0,0,,yes,yes,visible,0,instock,no,no,0,,,,,,taxable,reduced-rate,,,no,https://s3.amazonaws.com/mehibimember/ASIF2016_23JUNI_ARROWBANNER/arrowbanner_17.eps,,,,,https://maulanaicl.files.wordpress.com/2017/10/arrowbanner_17.jpg,simple,Logo,decorative|simple|background|vector|modern|color|object|abstract|illustration|creative|wallpaper|art|logo|company|corporate|arrow|banner,,amount,,"23 Jun, 2016",1.0,"Adobe Illustrator, Corel Draw",".EPS, .JPG",650 KB,Adobe Illustrator and Corel Draw
Arrow Banner Series 018,,"<ul>
         <li>EPS file, fully layered, editable with almost all versions of vector programs like Illustrator or Inkscape</li>
         <li>JPG file, approx. 3900 × 39000 p - 300 Dpi, color space RGB</li>
</ul>
All files are editable by the CS Adobe version or higher.

All vector files are composed with a shapes, no paths.

Do you want any customization ? Please Mail me!

Happy designing !",,0,0,,yes,yes,visible,0,instock,no,no,0,,,,,,taxable,reduced-rate,,,no,https://s3.amazonaws.com/mehibimember/ASIF2016_23JUNI_ARROWBANNER/arrowbanner_18.eps,,,,,https://maulanaicl.files.wordpress.com/2017/10/arrowbanner_18.jpg,simple,Logo,decorative|simple|background|vector|modern|color|object|abstract|illustration|creative|wallpaper|art|logo|company|corporate|arrow|banner,,amount,,"23 Jun, 2016",1.0,"Adobe Illustrator, Corel Draw",".EPS, .JPG",650 KB,Adobe Illustrator and Corel Draw
Arrow Banner Series 019,,"<ul>
         <li>EPS file, fully layered, editable with almost all versions of vector programs like Illustrator or Inkscape</li>
         <li>JPG file, approx. 3900 × 39000 p - 300 Dpi, color space RGB</li>
</ul>
All files are editable by the CS Adobe version or higher.

All vector files are composed with a shapes, no paths.

Do you want any customization ? Please Mail me!

Happy designing !",,0,0,,yes,yes,visible,0,instock,no,no,0,,,,,,taxable,reduced-rate,,,no,https://s3.amazonaws.com/mehibimember/ASIF2016_23JUNI_ARROWBANNER/arrowbanner_19.eps,,,,,https://maulanaicl.files.wordpress.com/2017/10/arrowbanner_19.jpg,simple,Logo,decorative|simple|background|vector|modern|color|object|abstract|illustration|creative|wallpaper|art|logo|company|corporate|arrow|banner,,amount,,"23 Jun, 2016",1.0,"Adobe Illustrator, Corel Draw",".EPS, .JPG",650 KB,Adobe Illustrator and Corel Draw
Arrow Banner Series 020,,"<ul>
         <li>EPS file, fully layered, editable with almost all versions of vector programs like Illustrator or Inkscape</li>
         <li>JPG file, approx. 3900 × 39000 p - 300 Dpi, color space RGB</li>
</ul>
All files are editable by the CS Adobe version or higher.

All vector files are composed with a shapes, no paths.

Do you want any customization ? Please Mail me!

Happy designing !",,0,0,,yes,yes,visible,0,instock,no,no,0,,,,,,taxable,reduced-rate,,,no,https://s3.amazonaws.com/mehibimember/ASIF2016_23JUNI_ARROWBANNER/arrowbanner_20.eps,,,,,https://maulanaicl.files.wordpress.com/2017/10/arrowbanner_20.jpg,simple,Logo,decorative|simple|background|vector|modern|color|object|abstract|illustration|creative|wallpaper|art|logo|company|corporate|arrow|banner,,amount,,"23 Jun, 2016",1.0,"Adobe Illustrator, Corel Draw",".EPS, .JPG",650 KB,Adobe Illustrator and Corel Draw
Arrow Banner Series 021,,"<ul>
         <li>EPS file, fully layered, editable with almost all versions of vector programs like Illustrator or Inkscape</li>
         <li>JPG file, approx. 3900 × 39000 p - 300 Dpi, color space RGB</li>
</ul>
All files are editable by the CS Adobe version or higher.

All vector files are composed with a shapes, no paths.

Do you want any customization ? Please Mail me!

Happy designing !",,0,0,,yes,yes,visible,0,instock,no,no,0,,,,,,taxable,reduced-rate,,,no,https://s3.amazonaws.com/mehibimember/ASIF2016_23JUNI_ARROWBANNER/arrowbanner_21.eps,,,,,https://maulanaicl.files.wordpress.com/2017/10/arrowbanner_21.jpg,simple,Logo,decorative|simple|background|vector|modern|color|object|abstract|illustration|creative|wallpaper|art|logo|company|corporate|arrow|banner,,amount,,"23 Jun, 2016",1.0,"Adobe Illustrator, Corel Draw",".EPS, .JPG",650 KB,Adobe Illustrator and Corel Draw
Arrow Banner Series 022,,"<ul>
         <li>EPS file, fully layered, editable with almost all versions of vector programs like Illustrator or Inkscape</li>
         <li>JPG file, approx. 3900 × 39000 p - 300 Dpi, color space RGB</li>
</ul>
All files are editable by the CS Adobe version or higher.

All vector files are composed with a shapes, no paths.

Do you want any customization ? Please Mail me!

Happy designing !",,0,0,,yes,yes,visible,0,instock,no,no,0,,,,,,taxable,reduced-rate,,,no,https://s3.amazonaws.com/mehibimember/ASIF2016_23JUNI_ARROWBANNER/arrowbanner_22.eps,,,,,https://maulanaicl.files.wordpress.com/2017/10/arrowbanner_22.jpg,simple,Logo,decorative|simple|background|vector|modern|color|object|abstract|illustration|creative|wallpaper|art|logo|company|corporate|arrow|banner,,amount,,"23 Jun, 2016",1.0,"Adobe Illustrator, Corel Draw",".EPS, .JPG",650 KB,Adobe Illustrator and Corel Draw
Arrow Banner Series 023,,"<ul>
         <li>EPS file, fully layered, editable with almost all versions of vector programs like Illustrator or Inkscape</li>
         <li>JPG file, approx. 3900 × 39000 p - 300 Dpi, color space RGB</li>
</ul>
All files are editable by the CS Adobe version or higher.

All vector files are composed with a shapes, no paths.

Do you want any customization ? Please Mail me!

Happy designing !",,0,0,,yes,yes,visible,0,instock,no,no,0,,,,,,taxable,reduced-rate,,,no,https://s3.amazonaws.com/mehibimember/ASIF2016_23JUNI_ARROWBANNER/arrowbanner_23.eps,,,,,https://maulanaicl.files.wordpress.com/2017/10/arrowbanner_23.jpg,simple,Logo,decorative|simple|background|vector|modern|color|object|abstract|illustration|creative|wallpaper|art|logo|company|corporate|arrow|banner,,amount,,"23 Jun, 2016",1.0,"Adobe Illustrator, Corel Draw",".EPS, .JPG",650 KB,Adobe Illustrator and Corel Draw
Arrow Banner Series 024,,"<ul>
         <li>EPS file, fully layered, editable with almost all versions of vector programs like Illustrator or Inkscape</li>
         <li>JPG file, approx. 3900 × 39000 p - 300 Dpi, color space RGB</li>
</ul>
All files are editable by the CS Adobe version or higher.

All vector files are composed with a shapes, no paths.

Do you want any customization ? Please Mail me!

Happy designing !",,0,0,,yes,yes,visible,0,instock,no,no,0,,,,,,taxable,reduced-rate,,,no,https://s3.amazonaws.com/mehibimember/ASIF2016_23JUNI_ARROWBANNER/arrowbanner_24.eps,,,,,https://maulanaicl.files.wordpress.com/2017/10/arrowbanner_24.jpg,simple,Logo,decorative|simple|background|vector|modern|color|object|abstract|illustration|creative|wallpaper|art|logo|company|corporate|arrow|banner,,amount,,"23 Jun, 2016",1.0,"Adobe Illustrator, Corel Draw",".EPS, .JPG",650 KB,Adobe Illustrator and Corel Draw
Arrow Banner Series 025,,"<ul>
         <li>EPS file, fully layered, editable with almost all versions of vector programs like Illustrator or Inkscape</li>
         <li>JPG file, approx. 3900 × 39000 p - 300 Dpi, color space RGB</li>
</ul>
All files are editable by the CS Adobe version or higher.

All vector files are composed with a shapes, no paths.

Do you want any customization ? Please Mail me!

Happy designing !",,0,0,,yes,yes,visible,0,instock,no,no,0,,,,,,taxable,reduced-rate,,,no,https://s3.amazonaws.com/mehibimember/ASIF2016_23JUNI_ARROWBANNER/arrowbanner_25.eps,,,,,https://maulanaicl.files.wordpress.com/2017/10/arrowbanner_25.jpg,simple,Logo,decorative|simple|background|vector|modern|color|object|abstract|illustration|creative|wallpaper|art|logo|company|corporate|arrow|banner,,amount,,"23 Jun, 2016",1.0,"Adobe Illustrator, Corel Draw",".EPS, .JPG",650 KB,Adobe Illustrator and Corel Draw