post_title,post_excerpt,post_content,post_status,menu_order,post_parent,sku,downloadable,virtual,visibility,stock,stock_status,backorders,manage_stock,regular_price,sale_price,weight,length,width,height,tax_status,tax_class,upsell_ids,crosssell_ids,featured,file_path,download_limit,download_expiry,product_url,button_text,images,tax:product_type,tax:product_cat,tax:product_tag,tax:product_shipping_class,meta:woocommerce_sale_flash_type,,attribute:Release Date,attribute:Version,attribute:Software Application Type,attribute:File Type,attribute:File Size,attribute:Requirements
Pet Logo Series 026,,"<ul>
         <li>EPS file, fully layered, editable with almost all versions of vector programs like Illustrator or Inkscape</li>
         <li>JPG file, approx. 3900 × 39000 p - 300 Dpi, color space RGB</li>
</ul>
All files are editable by the CS Adobe version or higher.

All vector files are composed with a shapes, no paths.

Do you want any customization ? Please Mail me!

Happy designing !",,0,0,,yes,yes,visible,0,instock,no,no,0,,,,,,taxable,reduced-rate,,,no,https://s3.amazonaws.com/mehibimember/ASIF2016_21JUNI_PET/pet_1.eps,,,,,https://maulanaicl.files.wordpress.com/2017/10/pet_110.jpg,simple,Logo,decorative|simple|background|vector|modern|color|object|abstract|illustration|creative|wallpaper|art|logo|company|pet|petshop|cat|kitten|dog|doggy|bird,,amount,,"21 Jun, 2016",1.0,"Adobe Illustrator, Corel Draw",".EPS, .JPG",650 KB,Adobe Illustrator and Corel Draw
Pet Logo Series 027,,"<ul>
         <li>EPS file, fully layered, editable with almost all versions of vector programs like Illustrator or Inkscape</li>
         <li>JPG file, approx. 3900 × 39000 p - 300 Dpi, color space RGB</li>
</ul>
All files are editable by the CS Adobe version or higher.

All vector files are composed with a shapes, no paths.

Do you want any customization ? Please Mail me!

Happy designing !",,0,0,,yes,yes,visible,0,instock,no,no,0,,,,,,taxable,reduced-rate,,,no,https://s3.amazonaws.com/mehibimember/ASIF2016_21JUNI_PET/pet_2.eps,,,,,https://maulanaicl.files.wordpress.com/2017/10/pet_26.jpg,simple,Logo,decorative|simple|background|vector|modern|color|object|abstract|illustration|creative|wallpaper|art|logo|company|pet|petshop|cat|kitten|dog|doggy|bird,,amount,,"21 Jun, 2016",1.0,"Adobe Illustrator, Corel Draw",".EPS, .JPG",650 KB,Adobe Illustrator and Corel Draw
Pet Logo Series 028,,"<ul>
         <li>EPS file, fully layered, editable with almost all versions of vector programs like Illustrator or Inkscape</li>
         <li>JPG file, approx. 3900 × 39000 p - 300 Dpi, color space RGB</li>
</ul>
All files are editable by the CS Adobe version or higher.

All vector files are composed with a shapes, no paths.

Do you want any customization ? Please Mail me!

Happy designing !",,0,0,,yes,yes,visible,0,instock,no,no,0,,,,,,taxable,reduced-rate,,,no,https://s3.amazonaws.com/mehibimember/ASIF2016_21JUNI_PET/pet_3.eps,,,,,https://maulanaicl.files.wordpress.com/2017/10/pet_31.jpg,simple,Logo,decorative|simple|background|vector|modern|color|object|abstract|illustration|creative|wallpaper|art|logo|company|pet|petshop|cat|kitten|dog|doggy|bird,,amount,,"21 Jun, 2016",1.0,"Adobe Illustrator, Corel Draw",".EPS, .JPG",650 KB,Adobe Illustrator and Corel Draw
Pet Logo Series 029,,"<ul>
         <li>EPS file, fully layered, editable with almost all versions of vector programs like Illustrator or Inkscape</li>
         <li>JPG file, approx. 3900 × 39000 p - 300 Dpi, color space RGB</li>
</ul>
All files are editable by the CS Adobe version or higher.

All vector files are composed with a shapes, no paths.

Do you want any customization ? Please Mail me!

Happy designing !",,0,0,,yes,yes,visible,0,instock,no,no,0,,,,,,taxable,reduced-rate,,,no,https://s3.amazonaws.com/mehibimember/ASIF2016_21JUNI_PET/pet_4.eps,,,,,https://maulanaicl.files.wordpress.com/2017/10/pet_41.jpg,simple,Logo,decorative|simple|background|vector|modern|color|object|abstract|illustration|creative|wallpaper|art|logo|company|pet|petshop|cat|kitten|dog|doggy|bird,,amount,,"21 Jun, 2016",1.0,"Adobe Illustrator, Corel Draw",".EPS, .JPG",650 KB,Adobe Illustrator and Corel Draw
Pet Logo Series 030,,"<ul>
         <li>EPS file, fully layered, editable with almost all versions of vector programs like Illustrator or Inkscape</li>
         <li>JPG file, approx. 3900 × 39000 p - 300 Dpi, color space RGB</li>
</ul>
All files are editable by the CS Adobe version or higher.

All vector files are composed with a shapes, no paths.

Do you want any customization ? Please Mail me!

Happy designing !",,0,0,,yes,yes,visible,0,instock,no,no,0,,,,,,taxable,reduced-rate,,,no,https://s3.amazonaws.com/mehibimember/ASIF2016_21JUNI_PET/pet_5.eps,,,,,https://maulanaicl.files.wordpress.com/2017/10/pet_51.jpg,simple,Logo,decorative|simple|background|vector|modern|color|object|abstract|illustration|creative|wallpaper|art|logo|company|pet|petshop|cat|kitten|dog|doggy|bird,,amount,,"21 Jun, 2016",1.0,"Adobe Illustrator, Corel Draw",".EPS, .JPG",650 KB,Adobe Illustrator and Corel Draw
Pet Logo Series 031,,"<ul>
         <li>EPS file, fully layered, editable with almost all versions of vector programs like Illustrator or Inkscape</li>
         <li>JPG file, approx. 3900 × 39000 p - 300 Dpi, color space RGB</li>
</ul>
All files are editable by the CS Adobe version or higher.

All vector files are composed with a shapes, no paths.

Do you want any customization ? Please Mail me!

Happy designing !",,0,0,,yes,yes,visible,0,instock,no,no,0,,,,,,taxable,reduced-rate,,,no,https://s3.amazonaws.com/mehibimember/ASIF2016_21JUNI_PET/pet_6.eps,,,,,https://maulanaicl.files.wordpress.com/2017/10/pet_61.jpg,simple,Logo,decorative|simple|background|vector|modern|color|object|abstract|illustration|creative|wallpaper|art|logo|company|pet|petshop|cat|kitten|dog|doggy|bird,,amount,,"21 Jun, 2016",1.0,"Adobe Illustrator, Corel Draw",".EPS, .JPG",650 KB,Adobe Illustrator and Corel Draw
Pet Logo Series 032,,"<ul>
         <li>EPS file, fully layered, editable with almost all versions of vector programs like Illustrator or Inkscape</li>
         <li>JPG file, approx. 3900 × 39000 p - 300 Dpi, color space RGB</li>
</ul>
All files are editable by the CS Adobe version or higher.

All vector files are composed with a shapes, no paths.

Do you want any customization ? Please Mail me!

Happy designing !",,0,0,,yes,yes,visible,0,instock,no,no,0,,,,,,taxable,reduced-rate,,,no,https://s3.amazonaws.com/mehibimember/ASIF2016_21JUNI_PET/pet_7.eps,,,,,https://maulanaicl.files.wordpress.com/2017/10/pet_71.jpg,simple,Logo,decorative|simple|background|vector|modern|color|object|abstract|illustration|creative|wallpaper|art|logo|company|pet|petshop|cat|kitten|dog|doggy|bird,,amount,,"21 Jun, 2016",1.0,"Adobe Illustrator, Corel Draw",".EPS, .JPG",650 KB,Adobe Illustrator and Corel Draw
Pet Logo Series 033,,"<ul>
         <li>EPS file, fully layered, editable with almost all versions of vector programs like Illustrator or Inkscape</li>
         <li>JPG file, approx. 3900 × 39000 p - 300 Dpi, color space RGB</li>
</ul>
All files are editable by the CS Adobe version or higher.

All vector files are composed with a shapes, no paths.

Do you want any customization ? Please Mail me!

Happy designing !",,0,0,,yes,yes,visible,0,instock,no,no,0,,,,,,taxable,reduced-rate,,,no,https://s3.amazonaws.com/mehibimember/ASIF2016_21JUNI_PET/pet_8.eps,,,,,https://maulanaicl.files.wordpress.com/2017/10/pet_81.jpg,simple,Logo,decorative|simple|background|vector|modern|color|object|abstract|illustration|creative|wallpaper|art|logo|company|pet|petshop|cat|kitten|dog|doggy|bird,,amount,,"21 Jun, 2016",1.0,"Adobe Illustrator, Corel Draw",".EPS, .JPG",650 KB,Adobe Illustrator and Corel Draw
Pet Logo Series 034,,"<ul>
         <li>EPS file, fully layered, editable with almost all versions of vector programs like Illustrator or Inkscape</li>
         <li>JPG file, approx. 3900 × 39000 p - 300 Dpi, color space RGB</li>
</ul>
All files are editable by the CS Adobe version or higher.

All vector files are composed with a shapes, no paths.

Do you want any customization ? Please Mail me!

Happy designing !",,0,0,,yes,yes,visible,0,instock,no,no,0,,,,,,taxable,reduced-rate,,,no,https://s3.amazonaws.com/mehibimember/ASIF2016_21JUNI_PET/pet_9.eps,,,,,https://maulanaicl.files.wordpress.com/2017/10/pet_91.jpg,simple,Logo,decorative|simple|background|vector|modern|color|object|abstract|illustration|creative|wallpaper|art|logo|company|pet|petshop|cat|kitten|dog|doggy|bird,,amount,,"21 Jun, 2016",1.0,"Adobe Illustrator, Corel Draw",".EPS, .JPG",650 KB,Adobe Illustrator and Corel Draw
Pet Logo Series 035,,"<ul>
         <li>EPS file, fully layered, editable with almost all versions of vector programs like Illustrator or Inkscape</li>
         <li>JPG file, approx. 3900 × 39000 p - 300 Dpi, color space RGB</li>
</ul>
All files are editable by the CS Adobe version or higher.

All vector files are composed with a shapes, no paths.

Do you want any customization ? Please Mail me!

Happy designing !",,0,0,,yes,yes,visible,0,instock,no,no,0,,,,,,taxable,reduced-rate,,,no,https://s3.amazonaws.com/mehibimember/ASIF2016_21JUNI_PET/pet_10.eps,,,,,https://maulanaicl.files.wordpress.com/2017/10/pet_101.jpg,simple,Logo,decorative|simple|background|vector|modern|color|object|abstract|illustration|creative|wallpaper|art|logo|company|pet|petshop|cat|kitten|dog|doggy|bird,,amount,,"21 Jun, 2016",1.0,"Adobe Illustrator, Corel Draw",".EPS, .JPG",650 KB,Adobe Illustrator and Corel Draw
Pet Logo Series 036,,"<ul>
         <li>EPS file, fully layered, editable with almost all versions of vector programs like Illustrator or Inkscape</li>
         <li>JPG file, approx. 3900 × 39000 p - 300 Dpi, color space RGB</li>
</ul>
All files are editable by the CS Adobe version or higher.

All vector files are composed with a shapes, no paths.

Do you want any customization ? Please Mail me!

Happy designing !",,0,0,,yes,yes,visible,0,instock,no,no,0,,,,,,taxable,reduced-rate,,,no,https://s3.amazonaws.com/mehibimember/ASIF2016_21JUNI_PET/pet_11.eps,,,,,https://maulanaicl.files.wordpress.com/2017/10/pet_111.jpg,simple,Logo,decorative|simple|background|vector|modern|color|object|abstract|illustration|creative|wallpaper|art|logo|company|pet|petshop|cat|kitten|dog|doggy|bird,,amount,,"21 Jun, 2016",1.0,"Adobe Illustrator, Corel Draw",".EPS, .JPG",650 KB,Adobe Illustrator and Corel Draw
Pet Logo Series 037,,"<ul>
         <li>EPS file, fully layered, editable with almost all versions of vector programs like Illustrator or Inkscape</li>
         <li>JPG file, approx. 3900 × 39000 p - 300 Dpi, color space RGB</li>
</ul>
All files are editable by the CS Adobe version or higher.

All vector files are composed with a shapes, no paths.

Do you want any customization ? Please Mail me!

Happy designing !",,0,0,,yes,yes,visible,0,instock,no,no,0,,,,,,taxable,reduced-rate,,,no,https://s3.amazonaws.com/mehibimember/ASIF2016_21JUNI_PET/pet_12.eps,,,,,https://maulanaicl.files.wordpress.com/2017/10/pet_121.jpg,simple,Logo,decorative|simple|background|vector|modern|color|object|abstract|illustration|creative|wallpaper|art|logo|company|pet|petshop|cat|kitten|dog|doggy|bird,,amount,,"21 Jun, 2016",1.0,"Adobe Illustrator, Corel Draw",".EPS, .JPG",650 KB,Adobe Illustrator and Corel Draw
Pet Logo Series 038,,"<ul>
         <li>EPS file, fully layered, editable with almost all versions of vector programs like Illustrator or Inkscape</li>
         <li>JPG file, approx. 3900 × 39000 p - 300 Dpi, color space RGB</li>
</ul>
All files are editable by the CS Adobe version or higher.

All vector files are composed with a shapes, no paths.

Do you want any customization ? Please Mail me!

Happy designing !",,0,0,,yes,yes,visible,0,instock,no,no,0,,,,,,taxable,reduced-rate,,,no,https://s3.amazonaws.com/mehibimember/ASIF2016_21JUNI_PET/pet_13.eps,,,,,https://maulanaicl.files.wordpress.com/2017/10/pet_131.jpg,simple,Logo,decorative|simple|background|vector|modern|color|object|abstract|illustration|creative|wallpaper|art|logo|company|pet|petshop|cat|kitten|dog|doggy|bird,,amount,,"21 Jun, 2016",1.0,"Adobe Illustrator, Corel Draw",".EPS, .JPG",650 KB,Adobe Illustrator and Corel Draw
Pet Logo Series 039,,"<ul>
         <li>EPS file, fully layered, editable with almost all versions of vector programs like Illustrator or Inkscape</li>
         <li>JPG file, approx. 3900 × 39000 p - 300 Dpi, color space RGB</li>
</ul>
All files are editable by the CS Adobe version or higher.

All vector files are composed with a shapes, no paths.

Do you want any customization ? Please Mail me!

Happy designing !",,0,0,,yes,yes,visible,0,instock,no,no,0,,,,,,taxable,reduced-rate,,,no,https://s3.amazonaws.com/mehibimember/ASIF2016_21JUNI_PET/pet_14.eps,,,,,https://maulanaicl.files.wordpress.com/2017/10/pet_141.jpg,simple,Logo,decorative|simple|background|vector|modern|color|object|abstract|illustration|creative|wallpaper|art|logo|company|pet|petshop|cat|kitten|dog|doggy|bird,,amount,,"21 Jun, 2016",1.0,"Adobe Illustrator, Corel Draw",".EPS, .JPG",650 KB,Adobe Illustrator and Corel Draw
Pet Logo Series 040,,"<ul>
         <li>EPS file, fully layered, editable with almost all versions of vector programs like Illustrator or Inkscape</li>
         <li>JPG file, approx. 3900 × 39000 p - 300 Dpi, color space RGB</li>
</ul>
All files are editable by the CS Adobe version or higher.

All vector files are composed with a shapes, no paths.

Do you want any customization ? Please Mail me!

Happy designing !",,0,0,,yes,yes,visible,0,instock,no,no,0,,,,,,taxable,reduced-rate,,,no,https://s3.amazonaws.com/mehibimember/ASIF2016_21JUNI_PET/pet_15.eps,,,,,https://maulanaicl.files.wordpress.com/2017/10/pet_151.jpg,simple,Logo,decorative|simple|background|vector|modern|color|object|abstract|illustration|creative|wallpaper|art|logo|company|pet|petshop|cat|kitten|dog|doggy|bird,,amount,,"21 Jun, 2016",1.0,"Adobe Illustrator, Corel Draw",".EPS, .JPG",650 KB,Adobe Illustrator and Corel Draw
Pet Logo Series 041,,"<ul>
         <li>EPS file, fully layered, editable with almost all versions of vector programs like Illustrator or Inkscape</li>
         <li>JPG file, approx. 3900 × 39000 p - 300 Dpi, color space RGB</li>
</ul>
All files are editable by the CS Adobe version or higher.

All vector files are composed with a shapes, no paths.

Do you want any customization ? Please Mail me!

Happy designing !",,0,0,,yes,yes,visible,0,instock,no,no,0,,,,,,taxable,reduced-rate,,,no,https://s3.amazonaws.com/mehibimember/ASIF2016_21JUNI_PET/pet_16.eps,,,,,https://maulanaicl.files.wordpress.com/2017/10/pet_161.jpg,simple,Logo,decorative|simple|background|vector|modern|color|object|abstract|illustration|creative|wallpaper|art|logo|company|pet|petshop|cat|kitten|dog|doggy|bird,,amount,,"21 Jun, 2016",1.0,"Adobe Illustrator, Corel Draw",".EPS, .JPG",650 KB,Adobe Illustrator and Corel Draw
Pet Logo Series 042,,"<ul>
         <li>EPS file, fully layered, editable with almost all versions of vector programs like Illustrator or Inkscape</li>
         <li>JPG file, approx. 3900 × 39000 p - 300 Dpi, color space RGB</li>
</ul>
All files are editable by the CS Adobe version or higher.

All vector files are composed with a shapes, no paths.

Do you want any customization ? Please Mail me!

Happy designing !",,0,0,,yes,yes,visible,0,instock,no,no,0,,,,,,taxable,reduced-rate,,,no,https://s3.amazonaws.com/mehibimember/ASIF2016_21JUNI_PET/pet_17.eps,,,,,https://maulanaicl.files.wordpress.com/2017/10/pet_171.jpg,simple,Logo,decorative|simple|background|vector|modern|color|object|abstract|illustration|creative|wallpaper|art|logo|company|pet|petshop|cat|kitten|dog|doggy|bird,,amount,,"21 Jun, 2016",1.0,"Adobe Illustrator, Corel Draw",".EPS, .JPG",650 KB,Adobe Illustrator and Corel Draw
Pet Logo Series 043,,"<ul>
         <li>EPS file, fully layered, editable with almost all versions of vector programs like Illustrator or Inkscape</li>
         <li>JPG file, approx. 3900 × 39000 p - 300 Dpi, color space RGB</li>
</ul>
All files are editable by the CS Adobe version or higher.

All vector files are composed with a shapes, no paths.

Do you want any customization ? Please Mail me!

Happy designing !",,0,0,,yes,yes,visible,0,instock,no,no,0,,,,,,taxable,reduced-rate,,,no,https://s3.amazonaws.com/mehibimember/ASIF2016_21JUNI_PET/pet_18.eps,,,,,https://maulanaicl.files.wordpress.com/2017/10/pet_181.jpg,simple,Logo,decorative|simple|background|vector|modern|color|object|abstract|illustration|creative|wallpaper|art|logo|company|pet|petshop|cat|kitten|dog|doggy|bird,,amount,,"21 Jun, 2016",1.0,"Adobe Illustrator, Corel Draw",".EPS, .JPG",650 KB,Adobe Illustrator and Corel Draw
Pet Logo Series 044,,"<ul>
         <li>EPS file, fully layered, editable with almost all versions of vector programs like Illustrator or Inkscape</li>
         <li>JPG file, approx. 3900 × 39000 p - 300 Dpi, color space RGB</li>
</ul>
All files are editable by the CS Adobe version or higher.

All vector files are composed with a shapes, no paths.

Do you want any customization ? Please Mail me!

Happy designing !",,0,0,,yes,yes,visible,0,instock,no,no,0,,,,,,taxable,reduced-rate,,,no,https://s3.amazonaws.com/mehibimember/ASIF2016_21JUNI_PET/pet_19.eps,,,,,https://maulanaicl.files.wordpress.com/2017/10/pet_191.jpg,simple,Logo,decorative|simple|background|vector|modern|color|object|abstract|illustration|creative|wallpaper|art|logo|company|pet|petshop|cat|kitten|dog|doggy|bird,,amount,,"21 Jun, 2016",1.0,"Adobe Illustrator, Corel Draw",".EPS, .JPG",650 KB,Adobe Illustrator and Corel Draw
Pet Logo Series 045,,"<ul>
         <li>EPS file, fully layered, editable with almost all versions of vector programs like Illustrator or Inkscape</li>
         <li>JPG file, approx. 3900 × 39000 p - 300 Dpi, color space RGB</li>
</ul>
All files are editable by the CS Adobe version or higher.

All vector files are composed with a shapes, no paths.

Do you want any customization ? Please Mail me!

Happy designing !",,0,0,,yes,yes,visible,0,instock,no,no,0,,,,,,taxable,reduced-rate,,,no,https://s3.amazonaws.com/mehibimember/ASIF2016_21JUNI_PET/pet_20.eps,,,,,https://maulanaicl.files.wordpress.com/2017/10/pet_201.jpg,simple,Logo,decorative|simple|background|vector|modern|color|object|abstract|illustration|creative|wallpaper|art|logo|company|pet|petshop|cat|kitten|dog|doggy|bird,,amount,,"21 Jun, 2016",1.0,"Adobe Illustrator, Corel Draw",".EPS, .JPG",650 KB,Adobe Illustrator and Corel Draw
Pet Logo Series 046,,"<ul>
         <li>EPS file, fully layered, editable with almost all versions of vector programs like Illustrator or Inkscape</li>
         <li>JPG file, approx. 3900 × 39000 p - 300 Dpi, color space RGB</li>
</ul>
All files are editable by the CS Adobe version or higher.

All vector files are composed with a shapes, no paths.

Do you want any customization ? Please Mail me!

Happy designing !",,0,0,,yes,yes,visible,0,instock,no,no,0,,,,,,taxable,reduced-rate,,,no,https://s3.amazonaws.com/mehibimember/ASIF2016_21JUNI_PET/pet_21.eps,,,,,https://maulanaicl.files.wordpress.com/2017/10/pet_211.jpg,simple,Logo,decorative|simple|background|vector|modern|color|object|abstract|illustration|creative|wallpaper|art|logo|company|pet|petshop|cat|kitten|dog|doggy|bird,,amount,,"21 Jun, 2016",1.0,"Adobe Illustrator, Corel Draw",".EPS, .JPG",650 KB,Adobe Illustrator and Corel Draw
Pet Logo Series 047,,"<ul>
         <li>EPS file, fully layered, editable with almost all versions of vector programs like Illustrator or Inkscape</li>
         <li>JPG file, approx. 3900 × 39000 p - 300 Dpi, color space RGB</li>
</ul>
All files are editable by the CS Adobe version or higher.

All vector files are composed with a shapes, no paths.

Do you want any customization ? Please Mail me!

Happy designing !",,0,0,,yes,yes,visible,0,instock,no,no,0,,,,,,taxable,reduced-rate,,,no,https://s3.amazonaws.com/mehibimember/ASIF2016_21JUNI_PET/pet_22.eps,,,,,https://maulanaicl.files.wordpress.com/2017/10/pet_221.jpg,simple,Logo,decorative|simple|background|vector|modern|color|object|abstract|illustration|creative|wallpaper|art|logo|company|pet|petshop|cat|kitten|dog|doggy|bird,,amount,,"21 Jun, 2016",1.0,"Adobe Illustrator, Corel Draw",".EPS, .JPG",650 KB,Adobe Illustrator and Corel Draw
Pet Logo Series 048,,"<ul>
         <li>EPS file, fully layered, editable with almost all versions of vector programs like Illustrator or Inkscape</li>
         <li>JPG file, approx. 3900 × 39000 p - 300 Dpi, color space RGB</li>
</ul>
All files are editable by the CS Adobe version or higher.

All vector files are composed with a shapes, no paths.

Do you want any customization ? Please Mail me!

Happy designing !",,0,0,,yes,yes,visible,0,instock,no,no,0,,,,,,taxable,reduced-rate,,,no,https://s3.amazonaws.com/mehibimember/ASIF2016_21JUNI_PET/pet_23.eps,,,,,https://maulanaicl.files.wordpress.com/2017/10/pet_231.jpg,simple,Logo,decorative|simple|background|vector|modern|color|object|abstract|illustration|creative|wallpaper|art|logo|company|pet|petshop|cat|kitten|dog|doggy|bird,,amount,,"21 Jun, 2016",1.0,"Adobe Illustrator, Corel Draw",".EPS, .JPG",650 KB,Adobe Illustrator and Corel Draw
Pet Logo Series 049,,"<ul>
         <li>EPS file, fully layered, editable with almost all versions of vector programs like Illustrator or Inkscape</li>
         <li>JPG file, approx. 3900 × 39000 p - 300 Dpi, color space RGB</li>
</ul>
All files are editable by the CS Adobe version or higher.

All vector files are composed with a shapes, no paths.

Do you want any customization ? Please Mail me!

Happy designing !",,0,0,,yes,yes,visible,0,instock,no,no,0,,,,,,taxable,reduced-rate,,,no,https://s3.amazonaws.com/mehibimember/ASIF2016_21JUNI_PET/pet_24.eps,,,,,https://maulanaicl.files.wordpress.com/2017/10/pet_241.jpg,simple,Logo,decorative|simple|background|vector|modern|color|object|abstract|illustration|creative|wallpaper|art|logo|company|pet|petshop|cat|kitten|dog|doggy|bird,,amount,,"21 Jun, 2016",1.0,"Adobe Illustrator, Corel Draw",".EPS, .JPG",650 KB,Adobe Illustrator and Corel Draw
Pet Logo Series 050,,"<ul>
         <li>EPS file, fully layered, editable with almost all versions of vector programs like Illustrator or Inkscape</li>
         <li>JPG file, approx. 3900 × 39000 p - 300 Dpi, color space RGB</li>
</ul>
All files are editable by the CS Adobe version or higher.

All vector files are composed with a shapes, no paths.

Do you want any customization ? Please Mail me!

Happy designing !",,0,0,,yes,yes,visible,0,instock,no,no,0,,,,,,taxable,reduced-rate,,,no,https://s3.amazonaws.com/mehibimember/ASIF2016_21JUNI_PET/pet_25.eps,,,,,https://maulanaicl.files.wordpress.com/2017/10/pet_251.jpg,simple,Logo,decorative|simple|background|vector|modern|color|object|abstract|illustration|creative|wallpaper|art|logo|company|pet|petshop|cat|kitten|dog|doggy|bird,,amount,,"21 Jun, 2016",1.0,"Adobe Illustrator, Corel Draw",".EPS, .JPG",650 KB,Adobe Illustrator and Corel Draw